{
  "results": [
    {
      "vote_count": 171,
      "id": 373571,
      "video": false,
      "vote_average": 6.6,
      "title": "Godzilla: King of the Monsters",
      "popularity": 161.54,
      "poster_path": "/pU3bnutJU91u3b4IeRPQTOP8jhV.jpg",
      "original_language": "en",
      "original_title": "Godzilla: King of the Monsters",
      "genre_ids": [
        878,
        53
      ],
      "backdrop_path": "/mzRJpkWPjXdXak0WCc8ZxVH4hug.jpg",
      "adult": false,
      "overview": "The new story follows the heroic efforts of the crypto-zoological agency Monarch as its members face off against a battery of god-sized monsters, including the mighty Godzilla, who collides with Mothra, Rodan, and his ultimate nemesis, the three-headed King Ghidorah. When these ancient super-species—thought to be mere myths—rise again, they all vie for supremacy, leaving humanity’s very existence hanging in the balance.",
      "release_date": "2019-05-29"
    },
    {
      "vote_count": 1020,
      "id": 447404,
      "video": false,
      "vote_average": 7,
      "title": "Pokémon Detective Pikachu",
      "popularity": 114.075,
      "poster_path": "/wgQ7APnFpf1TuviKHXeEe3KnsTV.jpg",
      "original_language": "en",
      "original_title": "Pokémon Detective Pikachu",
      "genre_ids": [
        9648,
        10751,
        35,
        878,
        28,
        12
      ],
      "backdrop_path": "/nDP33LmQwNsnPv29GQazz59HjJI.jpg",
      "adult": false,
      "overview": "In a world where people collect pocket-size monsters (Pokémon) to do battle, a boy comes across an intelligent monster who seeks to be a detective.",
      "release_date": "2019-05-03"
    },
    {
      "vote_count": 93,
      "id": 535581,
      "video": false,
      "vote_average": 5.9,
      "title": "The Dead Don't Die",
      "popularity": 94.06,
      "poster_path": "/ycMSfP8KRFsVUWfbSxSFpD97QfD.jpg",
      "original_language": "en",
      "original_title": "The Dead Don't Die",
      "genre_ids": [
        35,
        27
      ],
      "backdrop_path": "/cXyfAViYly0Lk2CVpEKgYbt9wKQ.jpg",
      "adult": false,
      "overview": "In a small peaceful town, zombies suddenly rise to terrorize the town. Now three bespectacled police officers and a strange Scottish morgue expert must band together to defeat the undead.",
      "release_date": "2019-05-15"
    },
    {
      "vote_count": 149,
      "id": 531309,
      "video": false,
      "vote_average": 5.6,
      "title": "Brightburn",
      "popularity": 88.678,
      "poster_path": "/sJWwkYc9ajwnPRSkqj8Aue5JbKz.jpg",
      "original_language": "en",
      "original_title": "Brightburn",
      "genre_ids": [
        27,
        878,
        18,
        53
      ],
      "backdrop_path": "/uHEI6v8ApQusjbaRZ8o7WcLYeWb.jpg",
      "adult": false,
      "overview": "What if a child from another world crash-landed on Earth, but instead of becoming a hero to mankind, he proved to be something far more sinister?",
      "release_date": "2019-05-09"
    },
    {
      "vote_count": 24,
      "id": 412117,
      "video": false,
      "vote_average": 6.2,
      "title": "The Secret Life of Pets 2",
      "popularity": 75.431,
      "poster_path": "/q3mKnSkzp1doIsCye6ap4KIUAbu.jpg",
      "original_language": "en",
      "original_title": "The Secret Life of Pets 2",
      "genre_ids": [
        12,
        16,
        35,
        10751
      ],
      "backdrop_path": "/etaok7q2E5tV36oXe7GQzhUQ4fX.jpg",
      "adult": false,
      "overview": "What happens with our pets when we’re not home? This movie continues the original movie with Max and his friends.",
      "release_date": "2019-05-24"
    },
    {
      "vote_count": 151,
      "id": 505600,
      "video": false,
      "vote_average": 7.1,
      "title": "Booksmart",
      "popularity": 73.774,
      "poster_path": "/2aSxRDmisJP90H3S0aocyuQIe4z.jpg",
      "original_language": "en",
      "original_title": "Booksmart",
      "genre_ids": [
        35,
        18,
        10749
      ],
      "backdrop_path": "/wcAqndL2MkIjPrCrYeuE794weNE.jpg",
      "adult": false,
      "overview": "Two academic teenage superstars realize, on the eve of their high school graduation, that they should have worked less and played more. Determined to never fall short of their peers, the girls set out on a mission to cram four years of fun into one night.",
      "release_date": "2019-05-24"
    },
    {
      "vote_count": 154,
      "id": 504608,
      "video": false,
      "vote_average": 7.7,
      "title": "Rocketman",
      "popularity": 71.714,
      "poster_path": "/f4FF18ia7yTvHf2izNrHqBmgH8U.jpg",
      "original_language": "en",
      "original_title": "Rocketman",
      "genre_ids": [
        10402,
        18
      ],
      "backdrop_path": "/oAr5bgf49vxga9etWoQpAeRMvhp.jpg",
      "adult": false,
      "overview": "The story of Elton John's life, from his years as a prodigy at the Royal Academy of Music through his influential and enduring musical partnership with Bernie Taupin.",
      "release_date": "2019-05-22"
    },
    {
      "vote_count": 26,
      "id": 502416,
      "video": false,
      "vote_average": 5.2,
      "title": "Ma",
      "popularity": 68.019,
      "poster_path": "/6n7ASmQ1wY2cxTubFFGlcvPpyk7.jpg",
      "original_language": "en",
      "original_title": "Ma",
      "genre_ids": [
        53,
        27
      ],
      "backdrop_path": "/mBOv5YrX5QGr5CusK0PKSHuxOt9.jpg",
      "adult": false,
      "overview": "Sue Ann is a loner who keeps to herself in her quiet Ohio town. One day, she is asked by Maggie, a new teenager in town, to buy some booze for her and her friends, and Sue Ann sees the chance to make some unsuspecting, if younger, friends of her own.",
      "release_date": "2019-05-29"
    },
    {
      "vote_count": 587,
      "id": 527641,
      "video": false,
      "vote_average": 8.1,
      "title": "Five Feet Apart",
      "popularity": 57.359,
      "poster_path": "/kreTuJBkUjVWePRfhHZuYfhNE1T.jpg",
      "original_language": "en",
      "original_title": "Five Feet Apart",
      "genre_ids": [
        10749,
        18
      ],
      "backdrop_path": "/27ZkYMWynuK2qiDP6awc3MsCaOs.jpg",
      "adult": false,
      "overview": "Seventeen-year-old Stella spends most of her time in the hospital as a cystic fibrosis patient. Her life is full of routines, boundaries and self-control -- all of which get put to the test when she meets Will, an impossibly charming teen who has the same illness. There's an instant flirtation, though restrictions dictate that they must maintain a safe distance between them. As their connection intensifies, so does the temptation to throw the rules out the window and embrace that attraction.",
      "release_date": "2019-03-15"
    },
    {
      "vote_count": 4,
      "id": 455957,
      "video": false,
      "vote_average": 5.8,
      "title": "Domino",
      "popularity": 54.986,
      "poster_path": "/rrX1ojdd068aHlrGq5Khd92a3ba.jpg",
      "original_language": "en",
      "original_title": "Domino",
      "genre_ids": [
        80,
        53
      ],
      "backdrop_path": "/1NGFwLyUo6YYLYD6jUaiWXgxh6n.jpg",
      "adult": false,
      "overview": "Seeking justice for his partner’s murder by an ISIS member, a Copenhagen police officer finds himself caught in a cat and mouse game with a duplicitous CIA agent who is using the killer as a pawn to trap other ISIS members.",
      "release_date": "2019-05-31"
    },
    {
      "vote_count": 74,
      "id": 526050,
      "video": false,
      "vote_average": 6.3,
      "title": "Little",
      "popularity": 46.133,
      "poster_path": "/4MDB6jJl3U7xK1Gw64zIqt9pQA4.jpg",
      "original_language": "en",
      "original_title": "Little",
      "genre_ids": [
        35,
        14
      ],
      "backdrop_path": "/tmM78qRhpg0i2Cky8Q8hXKASOXY.jpg",
      "adult": false,
      "overview": "A woman receives the chance to relive the life of her younger self, at a point in her life when the pressures of adulthood become too much for her to bear.",
      "release_date": "2019-04-04"
    },
    {
      "vote_count": 250,
      "id": 440472,
      "video": false,
      "vote_average": 7.3,
      "title": "The Upside",
      "popularity": 38.111,
      "poster_path": "/hPZ2caow1PCND6qnerfgn6RTXdm.jpg",
      "original_language": "en",
      "original_title": "The Upside",
      "genre_ids": [
        35,
        18
      ],
      "backdrop_path": "/mdGUvN7yCyExPNO5f4zAzifk1l1.jpg",
      "adult": false,
      "overview": "Phillip is a wealthy quadriplegic who needs a caretaker to help him with his day-to-day routine in his New York penthouse. He decides to hire Dell, a struggling parolee who's trying to reconnect with his ex and his young son. Despite coming from two different worlds, an unlikely friendship starts to blossom.",
      "release_date": "2019-01-10"
    },
    {
      "vote_count": 13,
      "id": 496243,
      "video": false,
      "vote_average": 9.3,
      "title": "Parasite",
      "popularity": 33.915,
      "poster_path": "/7IiTTgloJzvGI1TAYymCfbfl3vT.jpg",
      "original_language": "ko",
      "original_title": "기생충",
      "genre_ids": [
        35,
        18
      ],
      "backdrop_path": "/zNTUIqdRBQAI4aJBGhwGvd6KpvW.jpg",
      "adult": false,
      "overview": "All unemployed, Ki-taek's family takes peculiar interest in the wealthy and glamorous Parks for their livelihood until they get entangled in an unexpected incident.",
      "release_date": "2019-05-30"
    },
    {
      "vote_count": 109,
      "id": 471506,
      "video": false,
      "vote_average": 6.1,
      "title": "Greta",
      "popularity": 31.302,
      "poster_path": "/9hBpFyJ3pGdupXbaC2L7nGvLMBn.jpg",
      "original_language": "en",
      "original_title": "Greta",
      "genre_ids": [
        53,
        18,
        9648
      ],
      "backdrop_path": "/n67gpLtNFXqpGkM2ZdQoPLjTnI.jpg",
      "adult": false,
      "overview": "A young woman returns an elderly widow’s lost purse, leading to an unlikely relationship between the two — until the young woman discovers her elder might not be all that she seems.",
      "release_date": "2019-02-28"
    },
    {
      "vote_count": 0,
      "id": 301528,
      "video": false,
      "vote_average": 0,
      "title": "Toy Story 4",
      "popularity": 28.037,
      "poster_path": "/pDCiYUc09wnmg855P3gFTZOoBCv.jpg",
      "original_language": "en",
      "original_title": "Toy Story 4",
      "genre_ids": [
        12,
        16,
        35,
        10751
      ],
      "backdrop_path": "/3FXLxOnd5LnvK8F5jUbIXOF9p9Y.jpg",
      "adult": false,
      "overview": "Woody has always been confident about his place in the world and that his priority is taking care of his kid, whether that's Andy or Bonnie. But when Bonnie adds a reluctant new toy called \"Forky\" to her room, a road trip adventure alongside old and new friends will show Woody how big the world can be for a toy.",
      "release_date": "2019-06-19"
    },
    {
      "vote_count": 198,
      "id": 454294,
      "video": false,
      "vote_average": 6.1,
      "title": "The Kid Who Would Be King",
      "popularity": 26.226,
      "poster_path": "/kBuvLX6zynQP0sjyqbXV4jNaZ4E.jpg",
      "original_language": "en",
      "original_title": "The Kid Who Would Be King",
      "genre_ids": [
        28,
        12,
        14,
        10751
      ],
      "backdrop_path": "/jmbgxBd86MshzQQvv5laKvOKoMm.jpg",
      "adult": false,
      "overview": "Old-school magic meets the modern world when young Alex stumbles upon the mythical sword Excalibur. He soon unites his friends and enemies, and they become knights who join forces with the legendary wizard Merlin. Together, they must save mankind from the wicked enchantress Morgana and her army of supernatural warriors.",
      "release_date": "2019-01-16"
    },
    {
      "vote_count": 105,
      "id": 459992,
      "video": false,
      "vote_average": 6.9,
      "title": "Long Shot",
      "popularity": 25.462,
      "poster_path": "/m2ttWZ8rMRwIMT7zA48Jo6mTkDS.jpg",
      "original_language": "en",
      "original_title": "Long Shot",
      "genre_ids": [
        35,
        10749
      ],
      "backdrop_path": "/88r25ghJzVYKq0vaOApqEOZsQlD.jpg",
      "adult": false,
      "overview": "When Fred Flarsky reunites with his first crush, one of the most influential women in the world, Charlotte Field, he charms her. As she prepares to make a run for the Presidency, Charlotte hires Fred as her speechwriter and sparks fly.",
      "release_date": "2019-05-02"
    },
    {
      "vote_count": 26,
      "id": 468224,
      "video": false,
      "vote_average": 5.9,
      "title": "Tolkien",
      "popularity": 24.908,
      "poster_path": "/5ElXRKi773koW0mAnRjpNTpgZXZ.jpg",
      "original_language": "en",
      "original_title": "Tolkien",
      "genre_ids": [
        18
      ],
      "backdrop_path": "/wdw0KYwlIVu1VxESXFWM1x2z1dz.jpg",
      "adult": false,
      "overview": "Explore the formative years of the orphaned author as he finds friendship, love and artistic inspiration among a group of fellow outcasts at school. This takes him into the outbreak of World War I, which threatens to tear the “fellowship” apart. All of these experiences would inspire Tolkien to write his famous Middle-Earth novels.",
      "release_date": "2019-05-03"
    },
    {
      "vote_count": 753,
      "id": 491418,
      "video": false,
      "vote_average": 7.6,
      "title": "Instant Family",
      "popularity": 24.329,
      "poster_path": "/dic3GdmMpxxfkCQfvZnasb5ZkSG.jpg",
      "original_language": "en",
      "original_title": "Instant Family",
      "genre_ids": [
        35,
        18
      ],
      "backdrop_path": "/mXowJ0usjsCgI9hM0BSIoTVnKRI.jpg",
      "adult": false,
      "overview": "When Pete and Ellie decide to start a family, they stumble into the world of foster care adoption. They hope to take in one small child but when they meet three siblings, including a rebellious 15 year old girl, they find themselves speeding from zero to three kids overnight.",
      "release_date": "2018-11-16"
    },
    {
      "vote_count": 116,
      "id": 411728,
      "video": false,
      "vote_average": 7.2,
      "title": "The Professor and the Madman",
      "popularity": 24.023,
      "poster_path": "/gtGCDLhfjW96qVarwctnuTpGOtD.jpg",
      "original_language": "en",
      "original_title": "The Professor and the Madman",
      "genre_ids": [
        18,
        36,
        9648
      ],
      "backdrop_path": "/zhNfM1CSQqJtIqelwlK9iKtSd9P.jpg",
      "adult": false,
      "overview": "Professor James Murray begins work compiling words for the first edition of the Oxford English Dictionary in the mid 19th century, and receives over 10,000 entries from a patient at Broadmoor Criminal Lunatic Asylum, Dr. William Minor.",
      "release_date": "2019-03-07"
    }
  ],
  "page": 1,
  "total_results": 192,
  "dates": {
    "maximum": "2019-06-23",
    "minimum": "2019-06-08"
  },
  "total_pages": 10
}
